module gitlab.com/iainvm/container-proxy

go 1.16

require (
	github.com/containerd/containerd v1.5.4 // indirect
	github.com/docker/docker v20.10.7+incompatible
	github.com/docker/go-connections v0.4.0 // indirect
	github.com/gorilla/mux v1.8.0 // indirect
	github.com/moby/term v0.0.0-20210619224110-3f7ff695adc6 // indirect
	github.com/morikuni/aec v1.0.0 // indirect
	github.com/sirupsen/logrus v1.8.1 // indirect
	golang.org/x/time v0.0.0-20210611083556-38a9dc6acbc6 // indirect
	google.golang.org/grpc v1.39.0 // indirect
)
